%YAML 1.1
%TAG !u! tag:unity3d.com,2011:
--- !u!1001 &100100000
Prefab:
  m_ObjectHideFlags: 1
  serializedVersion: 2
  m_Modification:
    m_TransformParent: {fileID: 0}
    m_Modifications: []
    m_RemovedComponents: []
  m_SourcePrefab: {fileID: 0}
  m_RootGameObject: {fileID: 1590491161369228}
  m_IsPrefabAsset: 1
--- !u!1 &1196536191368856
GameObject:
  m_ObjectHideFlags: 0
  m_CorrespondingSourceObject: {fileID: 0}
  m_PrefabInternal: {fileID: 100100000}
  serializedVersion: 6
  m_Component:
  - component: {fileID: 4777478346902292}
  - component: {fileID: 8195094281075532038}
  - component: {fileID: 3664157343820784972}
  m_Layer: 31
  m_Name: Layer1
  m_TagString: Untagged
  m_Icon: {fileID: 0}
  m_NavMeshLayer: 0
  m_StaticEditorFlags: 0
  m_IsActive: 1
--- !u!1 &1590491161369228
GameObject:
  m_ObjectHideFlags: 0
  m_CorrespondingSourceObject: {fileID: 0}
  m_PrefabInternal: {fileID: 100100000}
  serializedVersion: 6
  m_Component:
  - component: {fileID: 4808171728486664}
  - component: {fileID: 2569400266845117576}
  m_Layer: 31
  m_Name: Objects
  m_TagString: Untagged
  m_Icon: {fileID: 0}
  m_NavMeshLayer: 0
  m_StaticEditorFlags: 0
  m_IsActive: 1
--- !u!4 &4777478346902292
Transform:
  m_ObjectHideFlags: 1
  m_CorrespondingSourceObject: {fileID: 0}
  m_PrefabInternal: {fileID: 100100000}
  m_GameObject: {fileID: 1196536191368856}
  m_LocalRotation: {x: -0, y: -0, z: -0, w: 1}
  m_LocalPosition: {x: 0, y: 0, z: 0}
  m_LocalScale: {x: 1, y: 1, z: 1}
  m_Children: []
  m_Father: {fileID: 4808171728486664}
  m_RootOrder: 0
  m_LocalEulerAnglesHint: {x: 0, y: 0, z: 0}
--- !u!4 &4808171728486664
Transform:
  m_ObjectHideFlags: 1
  m_CorrespondingSourceObject: {fileID: 0}
  m_PrefabInternal: {fileID: 100100000}
  m_GameObject: {fileID: 1590491161369228}
  m_LocalRotation: {x: 0, y: 0, z: 0, w: 1}
  m_LocalPosition: {x: 0, y: 0, z: 0}
  m_LocalScale: {x: 1, y: 1, z: 1}
  m_Children:
  - {fileID: 4777478346902292}
  m_Father: {fileID: 0}
  m_RootOrder: 0
  m_LocalEulerAnglesHint: {x: 0, y: 0, z: 0}
--- !u!114 &114388603755504346
MonoBehaviour:
  m_ObjectHideFlags: 0
  m_CorrespondingSourceObject: {fileID: 0}
  m_PrefabInternal: {fileID: 0}
  m_GameObject: {fileID: 0}
  m_Enabled: 1
  m_EditorHideFlags: 1
  m_Script: {fileID: 12395, guid: 0000000000000000e000000000000000, type: 0}
  m_Name: Palette Settings
  m_EditorClassIdentifier: 
  cellSizing: 0
--- !u!156049354 &2569400266845117576
Grid:
  m_ObjectHideFlags: 1
  m_CorrespondingSourceObject: {fileID: 0}
  m_PrefabInternal: {fileID: 100100000}
  m_GameObject: {fileID: 1590491161369228}
  m_Enabled: 1
  m_CellSize: {x: 0.58, y: 1.08, z: 0}
  m_CellGap: {x: 0, y: 0, z: 0}
  m_CellLayout: 1
  m_CellSwizzle: 0
--- !u!483693784 &3664157343820784972
TilemapRenderer:
  m_ObjectHideFlags: 1
  m_CorrespondingSourceObject: {fileID: 0}
  m_PrefabInternal: {fileID: 100100000}
  m_GameObject: {fileID: 1196536191368856}
  m_Enabled: 0
  m_CastShadows: 0
  m_ReceiveShadows: 0
  m_DynamicOccludee: 0
  m_MotionVectors: 1
  m_LightProbeUsage: 0
  m_ReflectionProbeUsage: 0
  m_RenderingLayerMask: 4294967295
  m_Materials:
  - {fileID: 10754, guid: 0000000000000000f000000000000000, type: 0}
  m_StaticBatchInfo:
    firstSubMesh: 0
    subMeshCount: 0
  m_StaticBatchRoot: {fileID: 0}
  m_ProbeAnchor: {fileID: 0}
  m_LightProbeVolumeOverride: {fileID: 0}
  m_ScaleInLightmap: 1
  m_PreserveUVs: 0
  m_IgnoreNormalsForChartDetection: 0
  m_ImportantGI: 0
  m_StitchLightmapSeams: 0
  m_SelectedEditorRenderState: 0
  m_MinimumChartSize: 4
  m_AutoUVMaxDistance: 0.5
  m_AutoUVMaxAngle: 89
  m_LightmapParameters: {fileID: 0}
  m_SortingLayerID: 0
  m_SortingLayer: 0
  m_SortingOrder: 0
  m_ChunkSize: {x: 32, y: 32, z: 32}
  m_ChunkCullingBounds: {x: 0, y: 0, z: 0}
  m_MaxChunkCount: 16
  m_MaxFrameAge: 16
  m_SortOrder: 0
  m_DetectChunkCullingBounds: 0
  m_MaskInteraction: 0
--- !u!1839735485 &8195094281075532038
Tilemap:
  m_ObjectHideFlags: 1
  m_CorrespondingSourceObject: {fileID: 0}
  m_PrefabInternal: {fileID: 100100000}
  m_GameObject: {fileID: 1196536191368856}
  m_Enabled: 1
  m_Tiles:
  - first: {x: 2, y: -17, z: 0}
    second:
      m_TileIndex: 115
      m_TileSpriteIndex: 111
      m_TileMatrixIndex: 0
      m_TileColorIndex: 0
      m_ObjectToInstantiate: {fileID: 0}
      m_TileFlags: 1
      m_ColliderType: 1
  - first: {x: 8, y: -13, z: 0}
    second:
      m_TileIndex: 116
      m_TileSpriteIndex: 112
      m_TileMatrixIndex: 0
      m_TileColorIndex: 0
      m_ObjectToInstantiate: {fileID: 0}
      m_TileFlags: 1
      m_ColliderType: 1
  - first: {x: 16, y: -11, z: 0}
    second:
      m_TileIndex: 99
      m_TileSpriteIndex: 96
      m_TileMatrixIndex: 0
      m_TileColorIndex: 0
      m_ObjectToInstantiate: {fileID: 0}
      m_TileFlags: 1
      m_ColliderType: 1
  - first: {x: 17, y: -11, z: 0}
    second:
      m_TileIndex: 98
      m_TileSpriteIndex: 85
      m_TileMatrixIndex: 0
      m_TileColorIndex: 0
      m_ObjectToInstantiate: {fileID: 0}
      m_TileFlags: 1
      m_ColliderType: 1
  - first: {x: 18, y: -11, z: 0}
    second:
      m_TileIndex: 97
      m_TileSpriteIndex: 84
      m_TileMatrixIndex: 0
      m_TileColorIndex: 0
      m_ObjectToInstantiate: {fileID: 0}
      m_TileFlags: 1
      m_ColliderType: 1
  - first: {x: -1, y: -10, z: 0}
    second:
      m_TileIndex: 143
      m_TileSpriteIndex: 143
      m_TileMatrixIndex: 0
      m_TileColorIndex: 0
      m_ObjectToInstantiate: {fileID: 0}
      m_TileFlags: 1
      m_ColliderType: 1
  - first: {x: 0, y: -10, z: 0}
    second:
      m_TileIndex: 144
      m_TileSpriteIndex: 144
      m_TileMatrixIndex: 0
      m_TileColorIndex: 0
      m_ObjectToInstantiate: {fileID: 0}
      m_TileFlags: 1
      m_ColliderType: 1
  - first: {x: 1, y: -10, z: 0}
    second:
      m_TileIndex: 145
      m_TileSpriteIndex: 145
      m_TileMatrixIndex: 0
      m_TileColorIndex: 0
      m_ObjectToInstantiate: {fileID: 0}
      m_TileFlags: 1
      m_ColliderType: 1
  - first: {x: 2, y: -10, z: 0}
    second:
      m_TileIndex: 146
      m_TileSpriteIndex: 146
      m_TileMatrixIndex: 0
      m_TileColorIndex: 0
      m_ObjectToInstantiate: {fileID: 0}
      m_TileFlags: 1
      m_ColliderType: 1
  - first: {x: 3, y: -10, z: 0}
    second:
      m_TileIndex: 147
      m_TileSpriteIndex: 147
      m_TileMatrixIndex: 0
      m_TileColorIndex: 0
      m_ObjectToInstantiate: {fileID: 0}
      m_TileFlags: 1
      m_ColliderType: 1
  - first: {x: 4, y: -10, z: 0}
    second:
      m_TileIndex: 148
      m_TileSpriteIndex: 148
      m_TileMatrixIndex: 0
      m_TileColorIndex: 0
      m_ObjectToInstantiate: {fileID: 0}
      m_TileFlags: 1
      m_ColliderType: 1
  - first: {x: 16, y: -10, z: 0}
    second:
      m_TileIndex: 85
      m_TileSpriteIndex: 75
      m_TileMatrixIndex: 0
      m_TileColorIndex: 0
      m_ObjectToInstantiate: {fileID: 0}
      m_TileFlags: 1
      m_ColliderType: 1
  - first: {x: 17, y: -10, z: 0}
    second:
      m_TileIndex: 84
      m_TileSpriteIndex: 74
      m_TileMatrixIndex: 0
      m_TileColorIndex: 0
      m_ObjectToInstantiate: {fileID: 0}
      m_TileFlags: 1
      m_ColliderType: 1
  - first: {x: 18, y: -10, z: 0}
    second:
      m_TileIndex: 75
      m_TileSpriteIndex: 62
      m_TileMatrixIndex: 0
      m_TileColorIndex: 0
      m_ObjectToInstantiate: {fileID: 0}
      m_TileFlags: 1
      m_ColliderType: 1
  - first: {x: -8, y: -9, z: 0}
    second:
      m_TileIndex: 134
      m_TileSpriteIndex: 134
      m_TileMatrixIndex: 0
      m_TileColorIndex: 0
      m_ObjectToInstantiate: {fileID: 0}
      m_TileFlags: 1
      m_ColliderType: 1
  - first: {x: -7, y: -9, z: 0}
    second:
      m_TileIndex: 133
      m_TileSpriteIndex: 133
      m_TileMatrixIndex: 0
      m_TileColorIndex: 0
      m_ObjectToInstantiate: {fileID: 0}
      m_TileFlags: 1
      m_ColliderType: 1
  - first: {x: -6, y: -9, z: 0}
    second:
      m_TileIndex: 132
      m_TileSpriteIndex: 132
      m_TileMatrixIndex: 0
      m_TileColorIndex: 0
      m_ObjectToInstantiate: {fileID: 0}
      m_TileFlags: 1
      m_ColliderType: 1
  - first: {x: -5, y: -9, z: 0}
    second:
      m_TileIndex: 131
      m_TileSpriteIndex: 131
      m_TileMatrixIndex: 0
      m_TileColorIndex: 0
      m_ObjectToInstantiate: {fileID: 0}
      m_TileFlags: 1
      m_ColliderType: 1
  - first: {x: -4, y: -9, z: 0}
    second:
      m_TileIndex: 130
      m_TileSpriteIndex: 130
      m_TileMatrixIndex: 0
      m_TileColorIndex: 0
      m_ObjectToInstantiate: {fileID: 0}
      m_TileFlags: 1
      m_ColliderType: 1
  - first: {x: 4, y: -9, z: 0}
    second:
      m_TileIndex: 135
      m_TileSpriteIndex: 135
      m_TileMatrixIndex: 0
      m_TileColorIndex: 0
      m_ObjectToInstantiate: {fileID: 0}
      m_TileFlags: 1
      m_ColliderType: 1
  - first: {x: 5, y: -9, z: 0}
    second:
      m_TileIndex: 136
      m_TileSpriteIndex: 136
      m_TileMatrixIndex: 0
      m_TileColorIndex: 0
      m_ObjectToInstantiate: {fileID: 0}
      m_TileFlags: 1
      m_ColliderType: 1
  - first: {x: 6, y: -9, z: 0}
    second:
      m_TileIndex: 137
      m_TileSpriteIndex: 137
      m_TileMatrixIndex: 0
      m_TileColorIndex: 0
      m_ObjectToInstantiate: {fileID: 0}
      m_TileFlags: 1
      m_ColliderType: 1
  - first: {x: 7, y: -9, z: 0}
    second:
      m_TileIndex: 138
      m_TileSpriteIndex: 138
      m_TileMatrixIndex: 0
      m_TileColorIndex: 0
      m_ObjectToInstantiate: {fileID: 0}
      m_TileFlags: 1
      m_ColliderType: 1
  - first: {x: 8, y: -9, z: 0}
    second:
      m_TileIndex: 139
      m_TileSpriteIndex: 139
      m_TileMatrixIndex: 0
      m_TileColorIndex: 0
      m_ObjectToInstantiate: {fileID: 0}
      m_TileFlags: 1
      m_ColliderType: 1
  - first: {x: 9, y: -9, z: 0}
    second:
      m_TileIndex: 140
      m_TileSpriteIndex: 140
      m_TileMatrixIndex: 0
      m_TileColorIndex: 0
      m_ObjectToInstantiate: {fileID: 0}
      m_TileFlags: 1
      m_ColliderType: 1
  - first: {x: 10, y: -9, z: 0}
    second:
      m_TileIndex: 141
      m_TileSpriteIndex: 141
      m_TileMatrixIndex: 0
      m_TileColorIndex: 0
      m_ObjectToInstantiate: {fileID: 0}
      m_TileFlags: 1
      m_ColliderType: 1
  - first: {x: 11, y: -9, z: 0}
    second:
      m_TileIndex: 142
      m_TileSpriteIndex: 142
      m_TileMatrixIndex: 0
      m_TileColorIndex: 0
      m_ObjectToInstantiate: {fileID: 0}
      m_TileFlags: 1
      m_ColliderType: 1
  - first: {x: 16, y: -9, z: 0}
    second:
      m_TileIndex: 62
      m_TileSpriteIndex: 61
      m_TileMatrixIndex: 0
      m_TileColorIndex: 0
      m_ObjectToInstantiate: {fileID: 0}
      m_TileFlags: 1
      m_ColliderType: 1
  - first: {x: 17, y: -9, z: 0}
    second:
      m_TileIndex: 61
      m_TileSpriteIndex: 60
      m_TileMatrixIndex: 0
      m_TileColorIndex: 0
      m_ObjectToInstantiate: {fileID: 0}
      m_TileFlags: 1
      m_ColliderType: 1
  - first: {x: 18, y: -9, z: 0}
    second:
      m_TileIndex: 60
      m_TileSpriteIndex: 58
      m_TileMatrixIndex: 0
      m_TileColorIndex: 0
      m_ObjectToInstantiate: {fileID: 0}
      m_TileFlags: 1
      m_ColliderType: 1
  - first: {x: -8, y: -8, z: 0}
    second:
      m_TileIndex: 121
      m_TileSpriteIndex: 121
      m_TileMatrixIndex: 0
      m_TileColorIndex: 0
      m_ObjectToInstantiate: {fileID: 0}
      m_TileFlags: 1
      m_ColliderType: 1
  - first: {x: -7, y: -8, z: 0}
    second:
      m_TileIndex: 120
      m_TileSpriteIndex: 120
      m_TileMatrixIndex: 0
      m_TileColorIndex: 0
      m_ObjectToInstantiate: {fileID: 0}
      m_TileFlags: 1
      m_ColliderType: 1
  - first: {x: -6, y: -8, z: 0}
    second:
      m_TileIndex: 119
      m_TileSpriteIndex: 119
      m_TileMatrixIndex: 0
      m_TileColorIndex: 0
      m_ObjectToInstantiate: {fileID: 0}
      m_TileFlags: 1
      m_ColliderType: 1
  - first: {x: -5, y: -8, z: 0}
    second:
      m_TileIndex: 118
      m_TileSpriteIndex: 118
      m_TileMatrixIndex: 0
      m_TileColorIndex: 0
      m_ObjectToInstantiate: {fileID: 0}
      m_TileFlags: 1
      m_ColliderType: 1
  - first: {x: -4, y: -8, z: 0}
    second:
      m_TileIndex: 117
      m_TileSpriteIndex: 117
      m_TileMatrixIndex: 0
      m_TileColorIndex: 0
      m_ObjectToInstantiate: {fileID: 0}
      m_TileFlags: 1
      m_ColliderType: 1
  - first: {x: 4, y: -8, z: 0}
    second:
      m_TileIndex: 122
      m_TileSpriteIndex: 122
      m_TileMatrixIndex: 0
      m_TileColorIndex: 0
      m_ObjectToInstantiate: {fileID: 0}
      m_TileFlags: 1
      m_ColliderType: 1
  - first: {x: 5, y: -8, z: 0}
    second:
      m_TileIndex: 123
      m_TileSpriteIndex: 123
      m_TileMatrixIndex: 0
      m_TileColorIndex: 0
      m_ObjectToInstantiate: {fileID: 0}
      m_TileFlags: 1
      m_ColliderType: 1
  - first: {x: 6, y: -8, z: 0}
    second:
      m_TileIndex: 124
      m_TileSpriteIndex: 124
      m_TileMatrixIndex: 0
      m_TileColorIndex: 0
      m_ObjectToInstantiate: {fileID: 0}
      m_TileFlags: 1
      m_ColliderType: 1
  - first: {x: 7, y: -8, z: 0}
    second:
      m_TileIndex: 125
      m_TileSpriteIndex: 125
      m_TileMatrixIndex: 0
      m_TileColorIndex: 0
      m_ObjectToInstantiate: {fileID: 0}
      m_TileFlags: 1
      m_ColliderType: 1
  - first: {x: 8, y: -8, z: 0}
    second:
      m_TileIndex: 126
      m_TileSpriteIndex: 126
      m_TileMatrixIndex: 0
      m_TileColorIndex: 0
      m_ObjectToInstantiate: {fileID: 0}
      m_TileFlags: 1
      m_ColliderType: 1
  - first: {x: 9, y: -8, z: 0}
    second:
      m_TileIndex: 127
      m_TileSpriteIndex: 127
      m_TileMatrixIndex: 0
      m_TileColorIndex: 0
      m_ObjectToInstantiate: {fileID: 0}
      m_TileFlags: 1
      m_ColliderType: 1
  - first: {x: 10, y: -8, z: 0}
    second:
      m_TileIndex: 128
      m_TileSpriteIndex: 128
      m_TileMatrixIndex: 0
      m_TileColorIndex: 0
      m_ObjectToInstantiate: {fileID: 0}
      m_TileFlags: 1
      m_ColliderType: 1
  - first: {x: 11, y: -8, z: 0}
    second:
      m_TileIndex: 129
      m_TileSpriteIndex: 129
      m_TileMatrixIndex: 0
      m_TileColorIndex: 0
      m_ObjectToInstantiate: {fileID: 0}
      m_TileFlags: 1
      m_ColliderType: 1
  - first: {x: 15, y: -8, z: 0}
    second:
      m_TileIndex: 51
      m_TileSpriteIndex: 50
      m_TileMatrixIndex: 0
      m_TileColorIndex: 0
      m_ObjectToInstantiate: {fileID: 0}
      m_TileFlags: 1
      m_ColliderType: 1
  - first: {x: 16, y: -8, z: 0}
    second:
      m_TileIndex: 50
      m_TileSpriteIndex: 49
      m_TileMatrixIndex: 0
      m_TileColorIndex: 0
      m_ObjectToInstantiate: {fileID: 0}
      m_TileFlags: 1
      m_ColliderType: 1
  - first: {x: 17, y: -8, z: 0}
    second:
      m_TileIndex: 49
      m_TileSpriteIndex: 48
      m_TileMatrixIndex: 0
      m_TileColorIndex: 0
      m_ObjectToInstantiate: {fileID: 0}
      m_TileFlags: 1
      m_ColliderType: 1
  - first: {x: 18, y: -8, z: 0}
    second:
      m_TileIndex: 48
      m_TileSpriteIndex: 47
      m_TileMatrixIndex: 0
      m_TileColorIndex: 0
      m_ObjectToInstantiate: {fileID: 0}
      m_TileFlags: 1
      m_ColliderType: 1
  - first: {x: -8, y: -7, z: 0}
    second:
      m_TileIndex: 108
      m_TileSpriteIndex: 108
      m_TileMatrixIndex: 0
      m_TileColorIndex: 0
      m_ObjectToInstantiate: {fileID: 0}
      m_TileFlags: 1
      m_ColliderType: 1
  - first: {x: -7, y: -7, z: 0}
    second:
      m_TileIndex: 107
      m_TileSpriteIndex: 107
      m_TileMatrixIndex: 0
      m_TileColorIndex: 0
      m_ObjectToInstantiate: {fileID: 0}
      m_TileFlags: 1
      m_ColliderType: 1
  - first: {x: -6, y: -7, z: 0}
    second:
      m_TileIndex: 106
      m_TileSpriteIndex: 106
      m_TileMatrixIndex: 0
      m_TileColorIndex: 0
      m_ObjectToInstantiate: {fileID: 0}
      m_TileFlags: 1
      m_ColliderType: 1
  - first: {x: -5, y: -7, z: 0}
    second:
      m_TileIndex: 105
      m_TileSpriteIndex: 105
      m_TileMatrixIndex: 0
      m_TileColorIndex: 0
      m_ObjectToInstantiate: {fileID: 0}
      m_TileFlags: 1
      m_ColliderType: 1
  - first: {x: -4, y: -7, z: 0}
    second:
      m_TileIndex: 104
      m_TileSpriteIndex: 104
      m_TileMatrixIndex: 0
      m_TileColorIndex: 0
      m_ObjectToInstantiate: {fileID: 0}
      m_TileFlags: 1
      m_ColliderType: 1
  - first: {x: 4, y: -7, z: 0}
    second:
      m_TileIndex: 109
      m_TileSpriteIndex: 109
      m_TileMatrixIndex: 0
      m_TileColorIndex: 0
      m_ObjectToInstantiate: {fileID: 0}
      m_TileFlags: 1
      m_ColliderType: 1
  - first: {x: 5, y: -7, z: 0}
    second:
      m_TileIndex: 110
      m_TileSpriteIndex: 110
      m_TileMatrixIndex: 0
      m_TileColorIndex: 0
      m_ObjectToInstantiate: {fileID: 0}
      m_TileFlags: 1
      m_ColliderType: 1
  - first: {x: 6, y: -7, z: 0}
    second:
      m_TileIndex: 111
      m_TileSpriteIndex: 116
      m_TileMatrixIndex: 0
      m_TileColorIndex: 0
      m_ObjectToInstantiate: {fileID: 0}
      m_TileFlags: 1
      m_ColliderType: 1
  - first: {x: 7, y: -7, z: 0}
    second:
      m_TileIndex: 112
      m_TileSpriteIndex: 115
      m_TileMatrixIndex: 0
      m_TileColorIndex: 0
      m_ObjectToInstantiate: {fileID: 0}
      m_TileFlags: 1
      m_ColliderType: 1
  - first: {x: 8, y: -7, z: 0}
    second:
      m_TileIndex: 113
      m_TileSpriteIndex: 113
      m_TileMatrixIndex: 0
      m_TileColorIndex: 0
      m_ObjectToInstantiate: {fileID: 0}
      m_TileFlags: 1
      m_ColliderType: 1
  - first: {x: 9, y: -7, z: 0}
    second:
      m_TileIndex: 114
      m_TileSpriteIndex: 114
      m_TileMatrixIndex: 0
      m_TileColorIndex: 0
      m_ObjectToInstantiate: {fileID: 0}
      m_TileFlags: 1
      m_ColliderType: 1
  - first: {x: -8, y: -6, z: 0}
    second:
      m_TileIndex: 95
      m_TileSpriteIndex: 95
      m_TileMatrixIndex: 0
      m_TileColorIndex: 0
      m_ObjectToInstantiate: {fileID: 0}
      m_TileFlags: 1
      m_ColliderType: 1
  - first: {x: -7, y: -6, z: 0}
    second:
      m_TileIndex: 94
      m_TileSpriteIndex: 94
      m_TileMatrixIndex: 0
      m_TileColorIndex: 0
      m_ObjectToInstantiate: {fileID: 0}
      m_TileFlags: 1
      m_ColliderType: 1
  - first: {x: -6, y: -6, z: 0}
    second:
      m_TileIndex: 93
      m_TileSpriteIndex: 93
      m_TileMatrixIndex: 0
      m_TileColorIndex: 0
      m_ObjectToInstantiate: {fileID: 0}
      m_TileFlags: 1
      m_ColliderType: 1
  - first: {x: -5, y: -6, z: 0}
    second:
      m_TileIndex: 92
      m_TileSpriteIndex: 92
      m_TileMatrixIndex: 0
      m_TileColorIndex: 0
      m_ObjectToInstantiate: {fileID: 0}
      m_TileFlags: 1
      m_ColliderType: 1
  - first: {x: -4, y: -6, z: 0}
    second:
      m_TileIndex: 91
      m_TileSpriteIndex: 91
      m_TileMatrixIndex: 0
      m_TileColorIndex: 0
      m_ObjectToInstantiate: {fileID: 0}
      m_TileFlags: 1
      m_ColliderType: 1
  - first: {x: -4, y: -3, z: 0}
    second:
      m_TileIndex: 103
      m_TileSpriteIndex: 102
      m_TileMatrixIndex: 0
      m_TileColorIndex: 0
      m_ObjectToInstantiate: {fileID: 0}
      m_TileFlags: 1
      m_ColliderType: 1
  - first: {x: 13, y: -3, z: 0}
    second:
      m_TileIndex: 90
      m_TileSpriteIndex: 90
      m_TileMatrixIndex: 0
      m_TileColorIndex: 0
      m_ObjectToInstantiate: {fileID: 0}
      m_TileFlags: 1
      m_ColliderType: 1
  - first: {x: 14, y: -3, z: 0}
    second:
      m_TileIndex: 89
      m_TileSpriteIndex: 89
      m_TileMatrixIndex: 0
      m_TileColorIndex: 0
      m_ObjectToInstantiate: {fileID: 0}
      m_TileFlags: 1
      m_ColliderType: 1
  - first: {x: 5, y: -2, z: 0}
    second:
      m_TileIndex: 102
      m_TileSpriteIndex: 103
      m_TileMatrixIndex: 0
      m_TileColorIndex: 0
      m_ObjectToInstantiate: {fileID: 0}
      m_TileFlags: 1
      m_ColliderType: 1
  - first: {x: 14, y: -2, z: 0}
    second:
      m_TileIndex: 76
      m_TileSpriteIndex: 76
      m_TileMatrixIndex: 0
      m_TileColorIndex: 0
      m_ObjectToInstantiate: {fileID: 0}
      m_TileFlags: 1
      m_ColliderType: 1
  - first: {x: 14, y: -1, z: 0}
    second:
      m_TileIndex: 63
      m_TileSpriteIndex: 63
      m_TileMatrixIndex: 0
      m_TileColorIndex: 0
      m_ObjectToInstantiate: {fileID: 0}
      m_TileFlags: 1
      m_ColliderType: 1
  - first: {x: 3, y: 1, z: 0}
    second:
      m_TileIndex: 45
      m_TileSpriteIndex: 37
      m_TileMatrixIndex: 0
      m_TileColorIndex: 0
      m_ObjectToInstantiate: {fileID: 0}
      m_TileFlags: 1
      m_ColliderType: 1
  - first: {x: 11, y: 1, z: 0}
    second:
      m_TileIndex: 64
      m_TileSpriteIndex: 64
      m_TileMatrixIndex: 0
      m_TileColorIndex: 0
      m_ObjectToInstantiate: {fileID: 0}
      m_TileFlags: 1
      m_ColliderType: 1
  - first: {x: 6, y: 2, z: 0}
    second:
      m_TileIndex: 101
      m_TileSpriteIndex: 101
      m_TileMatrixIndex: 0
      m_TileColorIndex: 0
      m_ObjectToInstantiate: {fileID: 0}
      m_TileFlags: 1
      m_ColliderType: 1
  - first: {x: 7, y: 2, z: 0}
    second:
      m_TileIndex: 100
      m_TileSpriteIndex: 100
      m_TileMatrixIndex: 0
      m_TileColorIndex: 0
      m_ObjectToInstantiate: {fileID: 0}
      m_TileFlags: 1
      m_ColliderType: 1
  - first: {x: 17, y: 2, z: 0}
    second:
      m_TileIndex: 96
      m_TileSpriteIndex: 99
      m_TileMatrixIndex: 0
      m_TileColorIndex: 0
      m_ObjectToInstantiate: {fileID: 0}
      m_TileFlags: 1
      m_ColliderType: 1
  - first: {x: 18, y: 2, z: 0}
    second:
      m_TileIndex: 88
      m_TileSpriteIndex: 88
      m_TileMatrixIndex: 0
      m_TileColorIndex: 0
      m_ObjectToInstantiate: {fileID: 0}
      m_TileFlags: 1
      m_ColliderType: 1
  - first: {x: -5, y: 3, z: 0}
    second:
      m_TileIndex: 83
      m_TileSpriteIndex: 83
      m_TileMatrixIndex: 0
      m_TileColorIndex: 0
      m_ObjectToInstantiate: {fileID: 0}
      m_TileFlags: 1
      m_ColliderType: 1
  - first: {x: -4, y: 3, z: 0}
    second:
      m_TileIndex: 82
      m_TileSpriteIndex: 82
      m_TileMatrixIndex: 0
      m_TileColorIndex: 0
      m_ObjectToInstantiate: {fileID: 0}
      m_TileFlags: 1
      m_ColliderType: 1
  - first: {x: -3, y: 3, z: 0}
    second:
      m_TileIndex: 81
      m_TileSpriteIndex: 81
      m_TileMatrixIndex: 0
      m_TileColorIndex: 0
      m_ObjectToInstantiate: {fileID: 0}
      m_TileFlags: 1
      m_ColliderType: 1
  - first: {x: -2, y: 3, z: 0}
    second:
      m_TileIndex: 80
      m_TileSpriteIndex: 80
      m_TileMatrixIndex: 0
      m_TileColorIndex: 0
      m_ObjectToInstantiate: {fileID: 0}
      m_TileFlags: 1
      m_ColliderType: 1
  - first: {x: -1, y: 3, z: 0}
    second:
      m_TileIndex: 79
      m_TileSpriteIndex: 79
      m_TileMatrixIndex: 0
      m_TileColorIndex: 0
      m_ObjectToInstantiate: {fileID: 0}
      m_TileFlags: 1
      m_ColliderType: 1
  - first: {x: 0, y: 3, z: 0}
    second:
      m_TileIndex: 78
      m_TileSpriteIndex: 78
      m_TileMatrixIndex: 0
      m_TileColorIndex: 0
      m_ObjectToInstantiate: {fileID: 0}
      m_TileFlags: 1
      m_ColliderType: 1
  - first: {x: 6, y: 3, z: 0}
    second:
      m_TileIndex: 87
      m_TileSpriteIndex: 87
      m_TileMatrixIndex: 0
      m_TileColorIndex: 0
      m_ObjectToInstantiate: {fileID: 0}
      m_TileFlags: 1
      m_ColliderType: 1
  - first: {x: 7, y: 3, z: 0}
    second:
      m_TileIndex: 86
      m_TileSpriteIndex: 86
      m_TileMatrixIndex: 0
      m_TileColorIndex: 0
      m_ObjectToInstantiate: {fileID: 0}
      m_TileFlags: 1
      m_ColliderType: 1
  - first: {x: 17, y: 3, z: 0}
    second:
      m_TileIndex: 74
      m_TileSpriteIndex: 98
      m_TileMatrixIndex: 0
      m_TileColorIndex: 0
      m_ObjectToInstantiate: {fileID: 0}
      m_TileFlags: 1
      m_ColliderType: 1
  - first: {x: 18, y: 3, z: 0}
    second:
      m_TileIndex: 73
      m_TileSpriteIndex: 73
      m_TileMatrixIndex: 0
      m_TileColorIndex: 0
      m_ObjectToInstantiate: {fileID: 0}
      m_TileFlags: 1
      m_ColliderType: 1
  - first: {x: -5, y: 4, z: 0}
    second:
      m_TileIndex: 70
      m_TileSpriteIndex: 70
      m_TileMatrixIndex: 0
      m_TileColorIndex: 0
      m_ObjectToInstantiate: {fileID: 0}
      m_TileFlags: 1
      m_ColliderType: 1
  - first: {x: -4, y: 4, z: 0}
    second:
      m_TileIndex: 69
      m_TileSpriteIndex: 69
      m_TileMatrixIndex: 0
      m_TileColorIndex: 0
      m_ObjectToInstantiate: {fileID: 0}
      m_TileFlags: 1
      m_ColliderType: 1
  - first: {x: -3, y: 4, z: 0}
    second:
      m_TileIndex: 68
      m_TileSpriteIndex: 68
      m_TileMatrixIndex: 0
      m_TileColorIndex: 0
      m_ObjectToInstantiate: {fileID: 0}
      m_TileFlags: 1
      m_ColliderType: 1
  - first: {x: -2, y: 4, z: 0}
    second:
      m_TileIndex: 67
      m_TileSpriteIndex: 67
      m_TileMatrixIndex: 0
      m_TileColorIndex: 0
      m_ObjectToInstantiate: {fileID: 0}
      m_TileFlags: 1
      m_ColliderType: 1
  - first: {x: -1, y: 4, z: 0}
    second:
      m_TileIndex: 66
      m_TileSpriteIndex: 66
      m_TileMatrixIndex: 0
      m_TileColorIndex: 0
      m_ObjectToInstantiate: {fileID: 0}
      m_TileFlags: 1
      m_ColliderType: 1
  - first: {x: 0, y: 4, z: 0}
    second:
      m_TileIndex: 65
      m_TileSpriteIndex: 65
      m_TileMatrixIndex: 0
      m_TileColorIndex: 0
      m_ObjectToInstantiate: {fileID: 0}
      m_TileFlags: 1
      m_ColliderType: 1
  - first: {x: 6, y: 4, z: 0}
    second:
      m_TileIndex: 72
      m_TileSpriteIndex: 72
      m_TileMatrixIndex: 0
      m_TileColorIndex: 0
      m_ObjectToInstantiate: {fileID: 0}
      m_TileFlags: 1
      m_ColliderType: 1
  - first: {x: 10, y: 4, z: 0}
    second:
      m_TileIndex: 59
      m_TileSpriteIndex: 97
      m_TileMatrixIndex: 0
      m_TileColorIndex: 0
      m_ObjectToInstantiate: {fileID: 0}
      m_TileFlags: 1
      m_ColliderType: 1
  - first: {x: -5, y: 5, z: 0}
    second:
      m_TileIndex: 57
      m_TileSpriteIndex: 57
      m_TileMatrixIndex: 0
      m_TileColorIndex: 0
      m_ObjectToInstantiate: {fileID: 0}
      m_TileFlags: 1
      m_ColliderType: 1
  - first: {x: -4, y: 5, z: 0}
    second:
      m_TileIndex: 56
      m_TileSpriteIndex: 56
      m_TileMatrixIndex: 0
      m_TileColorIndex: 0
      m_ObjectToInstantiate: {fileID: 0}
      m_TileFlags: 1
      m_ColliderType: 1
  - first: {x: -3, y: 5, z: 0}
    second:
      m_TileIndex: 55
      m_TileSpriteIndex: 55
      m_TileMatrixIndex: 0
      m_TileColorIndex: 0
      m_ObjectToInstantiate: {fileID: 0}
      m_TileFlags: 1
      m_ColliderType: 1
  - first: {x: -2, y: 5, z: 0}
    second:
      m_TileIndex: 54
      m_TileSpriteIndex: 54
      m_TileMatrixIndex: 0
      m_TileColorIndex: 0
      m_ObjectToInstantiate: {fileID: 0}
      m_TileFlags: 1
      m_ColliderType: 1
  - first: {x: -1, y: 5, z: 0}
    second:
      m_TileIndex: 53
      m_TileSpriteIndex: 53
      m_TileMatrixIndex: 0
      m_TileColorIndex: 0
      m_ObjectToInstantiate: {fileID: 0}
      m_TileFlags: 1
      m_ColliderType: 1
  - first: {x: 0, y: 5, z: 0}
    second:
      m_TileIndex: 52
      m_TileSpriteIndex: 52
      m_TileMatrixIndex: 0
      m_TileColorIndex: 0
      m_ObjectToInstantiate: {fileID: 0}
      m_TileFlags: 1
      m_ColliderType: 1
  - first: {x: 17, y: 5, z: 0}
    second:
      m_TileIndex: 47
      m_TileSpriteIndex: 51
      m_TileMatrixIndex: 0
      m_TileColorIndex: 0
      m_ObjectToInstantiate: {fileID: 0}
      m_TileFlags: 1
      m_ColliderType: 1
  - first: {x: 18, y: 5, z: 0}
    second:
      m_TileIndex: 46
      m_TileSpriteIndex: 45
      m_TileMatrixIndex: 0
      m_TileColorIndex: 0
      m_ObjectToInstantiate: {fileID: 0}
      m_TileFlags: 1
      m_ColliderType: 1
  - first: {x: 11, y: 9, z: 0}
    second:
      m_TileIndex: 6
      m_TileSpriteIndex: 59
      m_TileMatrixIndex: 0
      m_TileColorIndex: 0
      m_ObjectToInstantiate: {fileID: 0}
      m_TileFlags: 1
      m_ColliderType: 1
  - first: {x: 0, y: 10, z: 0}
    second:
      m_TileIndex: 44
      m_TileSpriteIndex: 44
      m_TileMatrixIndex: 0
      m_TileColorIndex: 0
      m_ObjectToInstantiate: {fileID: 0}
      m_TileFlags: 1
      m_ColliderType: 1
  - first: {x: 1, y: 10, z: 0}
    second:
      m_TileIndex: 43
      m_TileSpriteIndex: 43
      m_TileMatrixIndex: 0
      m_TileColorIndex: 0
      m_ObjectToInstantiate: {fileID: 0}
      m_TileFlags: 1
      m_ColliderType: 1
  - first: {x: 2, y: 10, z: 0}
    second:
      m_TileIndex: 42
      m_TileSpriteIndex: 42
      m_TileMatrixIndex: 0
      m_TileColorIndex: 0
      m_ObjectToInstantiate: {fileID: 0}
      m_TileFlags: 1
      m_ColliderType: 1
  - first: {x: 3, y: 10, z: 0}
    second:
      m_TileIndex: 41
      m_TileSpriteIndex: 41
      m_TileMatrixIndex: 0
      m_TileColorIndex: 0
      m_ObjectToInstantiate: {fileID: 0}
      m_TileFlags: 1
      m_ColliderType: 1
  - first: {x: 4, y: 10, z: 0}
    second:
      m_TileIndex: 40
      m_TileSpriteIndex: 40
      m_TileMatrixIndex: 0
      m_TileColorIndex: 0
      m_ObjectToInstantiate: {fileID: 0}
      m_TileFlags: 1
      m_ColliderType: 1
  - first: {x: 5, y: 10, z: 0}
    second:
      m_TileIndex: 39
      m_TileSpriteIndex: 39
      m_TileMatrixIndex: 0
      m_TileColorIndex: 0
      m_ObjectToInstantiate: {fileID: 0}
      m_TileFlags: 1
      m_ColliderType: 1
  - first: {x: 0, y: 11, z: 0}
    second:
      m_TileIndex: 31
      m_TileSpriteIndex: 31
      m_TileMatrixIndex: 0
      m_TileColorIndex: 0
      m_ObjectToInstantiate: {fileID: 0}
      m_TileFlags: 1
      m_ColliderType: 1
  - first: {x: 1, y: 11, z: 0}
    second:
      m_TileIndex: 30
      m_TileSpriteIndex: 30
      m_TileMatrixIndex: 0
      m_TileColorIndex: 0
      m_ObjectToInstantiate: {fileID: 0}
      m_TileFlags: 1
      m_ColliderType: 1
  - first: {x: 2, y: 11, z: 0}
    second:
      m_TileIndex: 29
      m_TileSpriteIndex: 29
      m_TileMatrixIndex: 0
      m_TileColorIndex: 0
      m_ObjectToInstantiate: {fileID: 0}
      m_TileFlags: 1
      m_ColliderType: 1
  - first: {x: 3, y: 11, z: 0}
    second:
      m_TileIndex: 28
      m_TileSpriteIndex: 28
      m_TileMatrixIndex: 0
      m_TileColorIndex: 0
      m_ObjectToInstantiate: {fileID: 0}
      m_TileFlags: 1
      m_ColliderType: 1
  - first: {x: 4, y: 11, z: 0}
    second:
      m_TileIndex: 27
      m_TileSpriteIndex: 27
      m_TileMatrixIndex: 0
      m_TileColorIndex: 0
      m_ObjectToInstantiate: {fileID: 0}
      m_TileFlags: 1
      m_ColliderType: 1
  - first: {x: 5, y: 11, z: 0}
    second:
      m_TileIndex: 26
      m_TileSpriteIndex: 38
      m_TileMatrixIndex: 0
      m_TileColorIndex: 0
      m_ObjectToInstantiate: {fileID: 0}
      m_TileFlags: 1
      m_ColliderType: 1
  - first: {x: 16, y: 11, z: 0}
    second:
      m_TileIndex: 58
      m_TileSpriteIndex: 46
      m_TileMatrixIndex: 0
      m_TileColorIndex: 0
      m_ObjectToInstantiate: {fileID: 0}
      m_TileFlags: 1
      m_ColliderType: 1
  - first: {x: 0, y: 12, z: 0}
    second:
      m_TileIndex: 18
      m_TileSpriteIndex: 18
      m_TileMatrixIndex: 0
      m_TileColorIndex: 0
      m_ObjectToInstantiate: {fileID: 0}
      m_TileFlags: 1
      m_ColliderType: 1
  - first: {x: 1, y: 12, z: 0}
    second:
      m_TileIndex: 17
      m_TileSpriteIndex: 17
      m_TileMatrixIndex: 0
      m_TileColorIndex: 0
      m_ObjectToInstantiate: {fileID: 0}
      m_TileFlags: 1
      m_ColliderType: 1
  - first: {x: 2, y: 12, z: 0}
    second:
      m_TileIndex: 16
      m_TileSpriteIndex: 16
      m_TileMatrixIndex: 0
      m_TileColorIndex: 0
      m_ObjectToInstantiate: {fileID: 0}
      m_TileFlags: 1
      m_ColliderType: 1
  - first: {x: 3, y: 12, z: 0}
    second:
      m_TileIndex: 15
      m_TileSpriteIndex: 15
      m_TileMatrixIndex: 0
      m_TileColorIndex: 0
      m_ObjectToInstantiate: {fileID: 0}
      m_TileFlags: 1
      m_ColliderType: 1
  - first: {x: 4, y: 12, z: 0}
    second:
      m_TileIndex: 14
      m_TileSpriteIndex: 14
      m_TileMatrixIndex: 0
      m_TileColorIndex: 0
      m_ObjectToInstantiate: {fileID: 0}
      m_TileFlags: 1
      m_ColliderType: 1
  - first: {x: 5, y: 12, z: 0}
    second:
      m_TileIndex: 13
      m_TileSpriteIndex: 13
      m_TileMatrixIndex: 0
      m_TileColorIndex: 0
      m_ObjectToInstantiate: {fileID: 0}
      m_TileFlags: 1
      m_ColliderType: 1
  - first: {x: 0, y: 13, z: 0}
    second:
      m_TileIndex: 5
      m_TileSpriteIndex: 5
      m_TileMatrixIndex: 0
      m_TileColorIndex: 0
      m_ObjectToInstantiate: {fileID: 0}
      m_TileFlags: 1
      m_ColliderType: 1
  - first: {x: 1, y: 13, z: 0}
    second:
      m_TileIndex: 4
      m_TileSpriteIndex: 4
      m_TileMatrixIndex: 0
      m_TileColorIndex: 0
      m_ObjectToInstantiate: {fileID: 0}
      m_TileFlags: 1
      m_ColliderType: 1
  - first: {x: 2, y: 13, z: 0}
    second:
      m_TileIndex: 3
      m_TileSpriteIndex: 3
      m_TileMatrixIndex: 0
      m_TileColorIndex: 0
      m_ObjectToInstantiate: {fileID: 0}
      m_TileFlags: 1
      m_ColliderType: 1
  - first: {x: 3, y: 13, z: 0}
    second:
      m_TileIndex: 2
      m_TileSpriteIndex: 2
      m_TileMatrixIndex: 0
      m_TileColorIndex: 0
      m_ObjectToInstantiate: {fileID: 0}
      m_TileFlags: 1
      m_ColliderType: 1
  - first: {x: 4, y: 13, z: 0}
    second:
      m_TileIndex: 1
      m_TileSpriteIndex: 1
      m_TileMatrixIndex: 0
      m_TileColorIndex: 0
      m_ObjectToInstantiate: {fileID: 0}
      m_TileFlags: 1
      m_ColliderType: 1
  - first: {x: 10, y: 13, z: 0}
    second:
      m_TileIndex: 71
      m_TileSpriteIndex: 71
      m_TileMatrixIndex: 0
      m_TileColorIndex: 0
      m_ObjectToInstantiate: {fileID: 0}
      m_TileFlags: 1
      m_ColliderType: 1
  - first: {x: 12, y: 13, z: 0}
    second:
      m_TileIndex: 77
      m_TileSpriteIndex: 77
      m_TileMatrixIndex: 0
      m_TileColorIndex: 0
      m_ObjectToInstantiate: {fileID: 0}
      m_TileFlags: 1
      m_ColliderType: 1
  m_AnimatedTiles: {}
  m_TileAssetArray:
  - m_RefCount: 0
    m_Data: {fileID: 0}
  - m_RefCount: 1
    m_Data: {fileID: 11400000, guid: 6d5b41e0749954145b0b7d73d242c118, type: 2}
  - m_RefCount: 1
    m_Data: {fileID: 11400000, guid: dfbca239dfe6ab84ab63574af4d471f1, type: 2}
  - m_RefCount: 1
    m_Data: {fileID: 11400000, guid: daa7bcf5d7bcdbf47a893759855dfb65, type: 2}
  - m_RefCount: 1
    m_Data: {fileID: 11400000, guid: c04912c6de9c88b4ab0ccafbc8420d12, type: 2}
  - m_RefCount: 1
    m_Data: {fileID: 11400000, guid: fbc54a48882e41e42855ee6c41ce0f35, type: 2}
  - m_RefCount: 1
    m_Data: {fileID: 11400000, guid: fbb12d86978e4094a8446fa8df4c69b2, type: 2}
  - m_RefCount: 0
    m_Data: {fileID: 0}
  - m_RefCount: 0
    m_Data: {fileID: 0}
  - m_RefCount: 0
    m_Data: {fileID: 0}
  - m_RefCount: 0
    m_Data: {fileID: 0}
  - m_RefCount: 0
    m_Data: {fileID: 0}
  - m_RefCount: 0
    m_Data: {fileID: 0}
  - m_RefCount: 1
    m_Data: {fileID: 11400000, guid: 74d2ca4a30b407340a2b311a32e94845, type: 2}
  - m_RefCount: 1
    m_Data: {fileID: 11400000, guid: 64f71b3311d485a4cb4042ccb644b385, type: 2}
  - m_RefCount: 1
    m_Data: {fileID: 11400000, guid: e7aef8ae350bc194cbcc755376c13d89, type: 2}
  - m_RefCount: 1
    m_Data: {fileID: 11400000, guid: b1db647e247a7144396685dd5214ad88, type: 2}
  - m_RefCount: 1
    m_Data: {fileID: 11400000, guid: 5b37069f2b455a349bca891c7e69372f, type: 2}
  - m_RefCount: 1
    m_Data: {fileID: 11400000, guid: 1fa29d0577d22494d8e89c5648c4d055, type: 2}
  - m_RefCount: 0
    m_Data: {fileID: 0}
  - m_RefCount: 0
    m_Data: {fileID: 0}
  - m_RefCount: 0
    m_Data: {fileID: 0}
  - m_RefCount: 0
    m_Data: {fileID: 0}
  - m_RefCount: 0
    m_Data: {fileID: 0}
  - m_RefCount: 0
    m_Data: {fileID: 0}
  - m_RefCount: 0
    m_Data: {fileID: 0}
  - m_RefCount: 1
    m_Data: {fileID: 11400000, guid: e818d1f57500f754a8e09548f7ebf726, type: 2}
  - m_RefCount: 1
    m_Data: {fileID: 11400000, guid: 8eef4f996c644204999eb66da2cb8e5c, type: 2}
  - m_RefCount: 1
    m_Data: {fileID: 11400000, guid: 8df9d6b423a8ed84e9cc4d22a96a7c13, type: 2}
  - m_RefCount: 1
    m_Data: {fileID: 11400000, guid: 5c6f34b50571c2c47abdca3c5d7c5091, type: 2}
  - m_RefCount: 1
    m_Data: {fileID: 11400000, guid: 250f1ed916d01ae4faf3ebe8d06ac053, type: 2}
  - m_RefCount: 1
    m_Data: {fileID: 11400000, guid: 6bba9b61b3959b4429e073f4dde05c6f, type: 2}
  - m_RefCount: 0
    m_Data: {fileID: 0}
  - m_RefCount: 0
    m_Data: {fileID: 0}
  - m_RefCount: 0
    m_Data: {fileID: 0}
  - m_RefCount: 0
    m_Data: {fileID: 0}
  - m_RefCount: 0
    m_Data: {fileID: 0}
  - m_RefCount: 0
    m_Data: {fileID: 0}
  - m_RefCount: 0
    m_Data: {fileID: 0}
  - m_RefCount: 1
    m_Data: {fileID: 11400000, guid: e768637c1c54e35448daa86464bc5da7, type: 2}
  - m_RefCount: 1
    m_Data: {fileID: 11400000, guid: e65d4deafecffc1418743c5696241680, type: 2}
  - m_RefCount: 1
    m_Data: {fileID: 11400000, guid: 76b22816eaa33b74e969e8534e744466, type: 2}
  - m_RefCount: 1
    m_Data: {fileID: 11400000, guid: bae05c16b90d56c45869f87520a436be, type: 2}
  - m_RefCount: 1
    m_Data: {fileID: 11400000, guid: 0bb39c2ef8162f84eba6f39ffc2e4263, type: 2}
  - m_RefCount: 1
    m_Data: {fileID: 11400000, guid: 93026720724b4c6419e82334d13a3bae, type: 2}
  - m_RefCount: 1
    m_Data: {fileID: 11400000, guid: 5fbef5232f744d9409b9a4580f7feeeb, type: 2}
  - m_RefCount: 1
    m_Data: {fileID: 11400000, guid: 874a5967c7d173c498082509b6fd2c58, type: 2}
  - m_RefCount: 1
    m_Data: {fileID: 11400000, guid: 38fe96c8763fb764089217928d70f6e4, type: 2}
  - m_RefCount: 1
    m_Data: {fileID: 11400000, guid: 0d380f402f9aca64cb0ccff9aaccd65b, type: 2}
  - m_RefCount: 1
    m_Data: {fileID: 11400000, guid: 1943b6bc1856f9146a9520eca1f8b6ff, type: 2}
  - m_RefCount: 1
    m_Data: {fileID: 11400000, guid: 1f6bfa247204a5b41a54fec43413990b, type: 2}
  - m_RefCount: 1
    m_Data: {fileID: 11400000, guid: c8309d1f82efa474d962f97744ce1af1, type: 2}
  - m_RefCount: 1
    m_Data: {fileID: 11400000, guid: 5d3d385480854b1448bd0d32a928249a, type: 2}
  - m_RefCount: 1
    m_Data: {fileID: 11400000, guid: 56f939e9d3bdb9649ba65c5858a5b406, type: 2}
  - m_RefCount: 1
    m_Data: {fileID: 11400000, guid: dcb0065974c9aa14b85087e9b3b00ad5, type: 2}
  - m_RefCount: 1
    m_Data: {fileID: 11400000, guid: 73193546856d2a94bbd222fda22b2137, type: 2}
  - m_RefCount: 1
    m_Data: {fileID: 11400000, guid: 0f00fed985359aa46aedf77bbf8cf53d, type: 2}
  - m_RefCount: 1
    m_Data: {fileID: 11400000, guid: 608de73df1c9a3b4a941aeda289e047a, type: 2}
  - m_RefCount: 1
    m_Data: {fileID: 11400000, guid: a4bd09a6fefd2974e9789f45b8949e09, type: 2}
  - m_RefCount: 1
    m_Data: {fileID: 11400000, guid: 8c2c2ccc629decc4e8c456333b100926, type: 2}
  - m_RefCount: 1
    m_Data: {fileID: 11400000, guid: 19756601c94eed445b8dbaee366dbb32, type: 2}
  - m_RefCount: 1
    m_Data: {fileID: 11400000, guid: 0d8ac9cf728c54a44ba2bd4cd2ecd824, type: 2}
  - m_RefCount: 1
    m_Data: {fileID: 11400000, guid: 7a1ee0c747ca20f44a70d8e0dd388aa2, type: 2}
  - m_RefCount: 1
    m_Data: {fileID: 11400000, guid: 38fa0c84d7e81094d917f33232e7f2ec, type: 2}
  - m_RefCount: 1
    m_Data: {fileID: 11400000, guid: bc0fb3bad67e3324f8c2830c88c17239, type: 2}
  - m_RefCount: 1
    m_Data: {fileID: 11400000, guid: ddb886cc81d7ca3478d86b35131b4376, type: 2}
  - m_RefCount: 1
    m_Data: {fileID: 11400000, guid: d17c1d5a8b2ad514f9cbbf9ab10c66e4, type: 2}
  - m_RefCount: 1
    m_Data: {fileID: 11400000, guid: deec126b9cac1894bbfd06c3399722e3, type: 2}
  - m_RefCount: 1
    m_Data: {fileID: 11400000, guid: 53f4f3fe442f3e24c90ccec7bacd3584, type: 2}
  - m_RefCount: 1
    m_Data: {fileID: 11400000, guid: d947e41131d1f52439e2871e43cfaf2f, type: 2}
  - m_RefCount: 1
    m_Data: {fileID: 11400000, guid: f84d09d1a21313c4b9dc3518b29b7db5, type: 2}
  - m_RefCount: 1
    m_Data: {fileID: 11400000, guid: aab78b83287d5634182edd1d768ad345, type: 2}
  - m_RefCount: 1
    m_Data: {fileID: 11400000, guid: 44e9b10ec7c2ec642a761222b1e3168c, type: 2}
  - m_RefCount: 1
    m_Data: {fileID: 11400000, guid: 0502ab5a33485804b9fd58d213cb8cb0, type: 2}
  - m_RefCount: 1
    m_Data: {fileID: 11400000, guid: ace94fbe6e44f334b9be0cd6c2dc898c, type: 2}
  - m_RefCount: 1
    m_Data: {fileID: 11400000, guid: 0e2c1bc54b844a040bfa3cb2f5253a7c, type: 2}
  - m_RefCount: 1
    m_Data: {fileID: 11400000, guid: 55e5bf3bbd6e8c0419aa73b7a9094c46, type: 2}
  - m_RefCount: 1
    m_Data: {fileID: 11400000, guid: 851ff2d93166e924c95da7476bf83981, type: 2}
  - m_RefCount: 1
    m_Data: {fileID: 11400000, guid: 2bb8ab1c2ee799a4eb80750810e4e7f0, type: 2}
  - m_RefCount: 1
    m_Data: {fileID: 11400000, guid: 52d73b3965c02f04abb20f51f114bc4c, type: 2}
  - m_RefCount: 1
    m_Data: {fileID: 11400000, guid: 8ba4df25e1662024e96ef67a1ec2e8c6, type: 2}
  - m_RefCount: 1
    m_Data: {fileID: 11400000, guid: 6e1cad023add78f44927ef48c6756799, type: 2}
  - m_RefCount: 1
    m_Data: {fileID: 11400000, guid: 4e007dab46c9b914b9dd3af4809456c0, type: 2}
  - m_RefCount: 1
    m_Data: {fileID: 11400000, guid: 91cc25d5cc2b0cd4eb8c37d542585a9e, type: 2}
  - m_RefCount: 1
    m_Data: {fileID: 11400000, guid: e0048155ff997ad4192f13fcef691ae7, type: 2}
  - m_RefCount: 1
    m_Data: {fileID: 11400000, guid: 8d97e79dcd1c8444aa7a22e97671cf3b, type: 2}
  - m_RefCount: 1
    m_Data: {fileID: 11400000, guid: b280496b2a6fdd04eb72b05dfcf26274, type: 2}
  - m_RefCount: 1
    m_Data: {fileID: 11400000, guid: 25629bb336df58e40b20a9e214e10d6e, type: 2}
  - m_RefCount: 1
    m_Data: {fileID: 11400000, guid: a116e1c32c602234fbfe3a8e73ce0fea, type: 2}
  - m_RefCount: 1
    m_Data: {fileID: 11400000, guid: 73995c6162e070a4f826ef78c1dd1d3c, type: 2}
  - m_RefCount: 1
    m_Data: {fileID: 11400000, guid: 105a949ffcdf88c4b8fdf3a2f7e16e46, type: 2}
  - m_RefCount: 1
    m_Data: {fileID: 11400000, guid: 2ac8bccaf4138cf419b77d8298d81bef, type: 2}
  - m_RefCount: 1
    m_Data: {fileID: 11400000, guid: 1308d668bf6398247b79669ad466deed, type: 2}
  - m_RefCount: 1
    m_Data: {fileID: 11400000, guid: e7e9c16a652a1b4499a8ea0c4a0e0521, type: 2}
  - m_RefCount: 1
    m_Data: {fileID: 11400000, guid: e5f2b9724b6e1a14184910d7ebe2a5c5, type: 2}
  - m_RefCount: 1
    m_Data: {fileID: 11400000, guid: 1834ecfbbab3bae41a1f539434362826, type: 2}
  - m_RefCount: 1
    m_Data: {fileID: 11400000, guid: 7c3be83bb85e45841b3d30fa43d3aec1, type: 2}
  - m_RefCount: 1
    m_Data: {fileID: 11400000, guid: 52b4a79e4fbf261458dc72cec07b132b, type: 2}
  - m_RefCount: 1
    m_Data: {fileID: 11400000, guid: a8882a9b53d57f348877167c20560e67, type: 2}
  - m_RefCount: 1
    m_Data: {fileID: 11400000, guid: 53d1e7cc51ace69429939d808195846e, type: 2}
  - m_RefCount: 1
    m_Data: {fileID: 11400000, guid: 89c5be6207a03bf44a09dfa6719e835f, type: 2}
  - m_RefCount: 1
    m_Data: {fileID: 11400000, guid: ff6dafc02102b0742beb3165ec51811f, type: 2}
  - m_RefCount: 1
    m_Data: {fileID: 11400000, guid: 8f5934828b9fd734aae2ed6a7ae7ab3d, type: 2}
  - m_RefCount: 1
    m_Data: {fileID: 11400000, guid: dfa4378aede6e464b8982c17e0cc2a9d, type: 2}
  - m_RefCount: 1
    m_Data: {fileID: 11400000, guid: fbdcb8c452b3dd9488d5550eee9eba36, type: 2}
  - m_RefCount: 1
    m_Data: {fileID: 11400000, guid: e2b66eb7f31c9654fa751e9d5cecf4e8, type: 2}
  - m_RefCount: 1
    m_Data: {fileID: 11400000, guid: 0c891f7cb3ec997479bc9c5bb6acc9ef, type: 2}
  - m_RefCount: 1
    m_Data: {fileID: 11400000, guid: 32749e539da401c419d16ae1a854140f, type: 2}
  - m_RefCount: 1
    m_Data: {fileID: 11400000, guid: 4e589464eb85a254f8a9bf2f871fe26e, type: 2}
  - m_RefCount: 1
    m_Data: {fileID: 11400000, guid: e4f31193e2c290d4f84f3e94389901a0, type: 2}
  - m_RefCount: 1
    m_Data: {fileID: 11400000, guid: b98cba4e7f1ce3446a74a7481a914f5e, type: 2}
  - m_RefCount: 1
    m_Data: {fileID: 11400000, guid: 06b58e20b2ad74f40b0486d563db7fa5, type: 2}
  - m_RefCount: 1
    m_Data: {fileID: 11400000, guid: 5622e081ca79d214793e305674520155, type: 2}
  - m_RefCount: 1
    m_Data: {fileID: 11400000, guid: caf57c1a57cdb684cbe5dff7c620723f, type: 2}
  - m_RefCount: 1
    m_Data: {fileID: 11400000, guid: 442aaf7247d44344ba9ccc6cfb393bc6, type: 2}
  - m_RefCount: 1
    m_Data: {fileID: 11400000, guid: 7ffc70c87e05d544eb1a78c488bb7b4d, type: 2}
  - m_RefCount: 1
    m_Data: {fileID: 11400000, guid: 0af1d54685203564c87bdb5bdc1eb177, type: 2}
  - m_RefCount: 1
    m_Data: {fileID: 11400000, guid: d635d2ef3e829b848b8511abbb9a627d, type: 2}
  - m_RefCount: 1
    m_Data: {fileID: 11400000, guid: 789488eada36b3642b378f86178fab62, type: 2}
  - m_RefCount: 1
    m_Data: {fileID: 11400000, guid: 0122e40f231a93c4980a2fe18c787c5e, type: 2}
  - m_RefCount: 1
    m_Data: {fileID: 11400000, guid: 23605aa6c7d3b184895612b6fa478765, type: 2}
  - m_RefCount: 1
    m_Data: {fileID: 11400000, guid: 8495c42db860bab428a4983ac54c4cee, type: 2}
  - m_RefCount: 1
    m_Data: {fileID: 11400000, guid: 10591ae521bfeb94a807c4a8771d0bee, type: 2}
  - m_RefCount: 1
    m_Data: {fileID: 11400000, guid: 5c60ba065bcdd894da5d2eafea6c603b, type: 2}
  - m_RefCount: 1
    m_Data: {fileID: 11400000, guid: 62aec11f465259645ab7ae56568c0869, type: 2}
  - m_RefCount: 1
    m_Data: {fileID: 11400000, guid: d2aa2ea44920ce246a7c867b76f92275, type: 2}
  - m_RefCount: 1
    m_Data: {fileID: 11400000, guid: 663034026fd35454a90e1ae19119d442, type: 2}
  - m_RefCount: 1
    m_Data: {fileID: 11400000, guid: e0d59eca80302c64ea915a40ebcc901d, type: 2}
  - m_RefCount: 1
    m_Data: {fileID: 11400000, guid: 9c14293696478f548abe960b3a0f64b4, type: 2}
  - m_RefCount: 1
    m_Data: {fileID: 11400000, guid: 882af9b0aae6ae442a21f7b4a835c8e3, type: 2}
  - m_RefCount: 1
    m_Data: {fileID: 11400000, guid: 57b8ab187088dd4429ac47436da76026, type: 2}
  - m_RefCount: 1
    m_Data: {fileID: 11400000, guid: ec79b278a9a74a94eb1b66b3cf56d20d, type: 2}
  - m_RefCount: 1
    m_Data: {fileID: 11400000, guid: a144ecbbbdcc6fd43874d27237e60d51, type: 2}
  - m_RefCount: 1
    m_Data: {fileID: 11400000, guid: b1a693ab7f97bab438f3b099d3b86020, type: 2}
  - m_RefCount: 1
    m_Data: {fileID: 11400000, guid: 320d62a91e7f30149a86f0fa02394766, type: 2}
  - m_RefCount: 1
    m_Data: {fileID: 11400000, guid: 2e4a19570b44c544f9bbaa31a5094c0a, type: 2}
  - m_RefCount: 1
    m_Data: {fileID: 11400000, guid: f67fd590d7a40c549b5f93935f98a0a8, type: 2}
  - m_RefCount: 1
    m_Data: {fileID: 11400000, guid: 602d699d3feb99d40ba845d340cc598a, type: 2}
  - m_RefCount: 1
    m_Data: {fileID: 11400000, guid: 1fc46ed99332c3b40b0b34df36567efa, type: 2}
  - m_RefCount: 1
    m_Data: {fileID: 11400000, guid: 82d2c3f20f8575b40ad23ed38d9805b9, type: 2}
  - m_RefCount: 1
    m_Data: {fileID: 11400000, guid: f105323883c8b7342971796668a2e60a, type: 2}
  - m_RefCount: 1
    m_Data: {fileID: 11400000, guid: 7dae17caabd50494bb94085dde834ecc, type: 2}
  - m_RefCount: 1
    m_Data: {fileID: 11400000, guid: 0d4abef5ff1f1d74db41d3e48efac381, type: 2}
  - m_RefCount: 1
    m_Data: {fileID: 11400000, guid: e513d9f6c7f31d44baa4fbdecae1a284, type: 2}
  - m_RefCount: 1
    m_Data: {fileID: 11400000, guid: a6934641e082a5940be3bc3714db5e8c, type: 2}
  - m_RefCount: 1
    m_Data: {fileID: 11400000, guid: 966b1f811cacfd74eb6733e01a5ec311, type: 2}
  - m_RefCount: 1
    m_Data: {fileID: 11400000, guid: 670b927c52bb14542ae88a6f76b5b0fd, type: 2}
  - m_RefCount: 1
    m_Data: {fileID: 11400000, guid: f2e0c331a50d2014baef70608d347344, type: 2}
  - m_RefCount: 1
    m_Data: {fileID: 11400000, guid: a9211b5198191a244a2e7cdf6b57b628, type: 2}
  m_TileSpriteArray:
  - m_RefCount: 0
    m_Data: {fileID: 0}
  - m_RefCount: 1
    m_Data: {fileID: 21300008, guid: c126f07508bdbcc44aac8dd4a9d39c3e, type: 3}
  - m_RefCount: 1
    m_Data: {fileID: 21300006, guid: c126f07508bdbcc44aac8dd4a9d39c3e, type: 3}
  - m_RefCount: 1
    m_Data: {fileID: 21300004, guid: c126f07508bdbcc44aac8dd4a9d39c3e, type: 3}
  - m_RefCount: 1
    m_Data: {fileID: 21300002, guid: c126f07508bdbcc44aac8dd4a9d39c3e, type: 3}
  - m_RefCount: 1
    m_Data: {fileID: 21300000, guid: c126f07508bdbcc44aac8dd4a9d39c3e, type: 3}
  - m_RefCount: 0
    m_Data: {fileID: 0}
  - m_RefCount: 0
    m_Data: {fileID: 0}
  - m_RefCount: 0
    m_Data: {fileID: 0}
  - m_RefCount: 0
    m_Data: {fileID: 0}
  - m_RefCount: 0
    m_Data: {fileID: 0}
  - m_RefCount: 0
    m_Data: {fileID: 0}
  - m_RefCount: 0
    m_Data: {fileID: 0}
  - m_RefCount: 1
    m_Data: {fileID: 21300036, guid: c126f07508bdbcc44aac8dd4a9d39c3e, type: 3}
  - m_RefCount: 1
    m_Data: {fileID: 21300034, guid: c126f07508bdbcc44aac8dd4a9d39c3e, type: 3}
  - m_RefCount: 1
    m_Data: {fileID: 21300032, guid: c126f07508bdbcc44aac8dd4a9d39c3e, type: 3}
  - m_RefCount: 1
    m_Data: {fileID: 21300030, guid: c126f07508bdbcc44aac8dd4a9d39c3e, type: 3}
  - m_RefCount: 1
    m_Data: {fileID: 21300028, guid: c126f07508bdbcc44aac8dd4a9d39c3e, type: 3}
  - m_RefCount: 1
    m_Data: {fileID: 21300026, guid: c126f07508bdbcc44aac8dd4a9d39c3e, type: 3}
  - m_RefCount: 0
    m_Data: {fileID: 0}
  - m_RefCount: 0
    m_Data: {fileID: 0}
  - m_RefCount: 0
    m_Data: {fileID: 0}
  - m_RefCount: 0
    m_Data: {fileID: 0}
  - m_RefCount: 0
    m_Data: {fileID: 0}
  - m_RefCount: 0
    m_Data: {fileID: 0}
  - m_RefCount: 0
    m_Data: {fileID: 0}
  - m_RefCount: 0
    m_Data: {fileID: 0}
  - m_RefCount: 1
    m_Data: {fileID: 21300060, guid: c126f07508bdbcc44aac8dd4a9d39c3e, type: 3}
  - m_RefCount: 1
    m_Data: {fileID: 21300058, guid: c126f07508bdbcc44aac8dd4a9d39c3e, type: 3}
  - m_RefCount: 1
    m_Data: {fileID: 21300056, guid: c126f07508bdbcc44aac8dd4a9d39c3e, type: 3}
  - m_RefCount: 1
    m_Data: {fileID: 21300054, guid: c126f07508bdbcc44aac8dd4a9d39c3e, type: 3}
  - m_RefCount: 1
    m_Data: {fileID: 21300052, guid: c126f07508bdbcc44aac8dd4a9d39c3e, type: 3}
  - m_RefCount: 0
    m_Data: {fileID: 0}
  - m_RefCount: 0
    m_Data: {fileID: 0}
  - m_RefCount: 0
    m_Data: {fileID: 0}
  - m_RefCount: 0
    m_Data: {fileID: 0}
  - m_RefCount: 0
    m_Data: {fileID: 0}
  - m_RefCount: 1
    m_Data: {fileID: 21300010, guid: c126f07508bdbcc44aac8dd4a9d39c3e, type: 3}
  - m_RefCount: 1
    m_Data: {fileID: 21300062, guid: c126f07508bdbcc44aac8dd4a9d39c3e, type: 3}
  - m_RefCount: 1
    m_Data: {fileID: 21300088, guid: c126f07508bdbcc44aac8dd4a9d39c3e, type: 3}
  - m_RefCount: 1
    m_Data: {fileID: 21300086, guid: c126f07508bdbcc44aac8dd4a9d39c3e, type: 3}
  - m_RefCount: 1
    m_Data: {fileID: 21300084, guid: c126f07508bdbcc44aac8dd4a9d39c3e, type: 3}
  - m_RefCount: 1
    m_Data: {fileID: 21300082, guid: c126f07508bdbcc44aac8dd4a9d39c3e, type: 3}
  - m_RefCount: 1
    m_Data: {fileID: 21300080, guid: c126f07508bdbcc44aac8dd4a9d39c3e, type: 3}
  - m_RefCount: 1
    m_Data: {fileID: 21300078, guid: c126f07508bdbcc44aac8dd4a9d39c3e, type: 3}
  - m_RefCount: 1
    m_Data: {fileID: 21300024, guid: c126f07508bdbcc44aac8dd4a9d39c3e, type: 3}
  - m_RefCount: 1
    m_Data: {fileID: 21300050, guid: c126f07508bdbcc44aac8dd4a9d39c3e, type: 3}
  - m_RefCount: 1
    m_Data: {fileID: 21300020, guid: c126f07508bdbcc44aac8dd4a9d39c3e, type: 3}
  - m_RefCount: 1
    m_Data: {fileID: 21300018, guid: c126f07508bdbcc44aac8dd4a9d39c3e, type: 3}
  - m_RefCount: 1
    m_Data: {fileID: 21300016, guid: c126f07508bdbcc44aac8dd4a9d39c3e, type: 3}
  - m_RefCount: 1
    m_Data: {fileID: 21300014, guid: c126f07508bdbcc44aac8dd4a9d39c3e, type: 3}
  - m_RefCount: 1
    m_Data: {fileID: 21300022, guid: c126f07508bdbcc44aac8dd4a9d39c3e, type: 3}
  - m_RefCount: 1
    m_Data: {fileID: 21300114, guid: c126f07508bdbcc44aac8dd4a9d39c3e, type: 3}
  - m_RefCount: 1
    m_Data: {fileID: 21300112, guid: c126f07508bdbcc44aac8dd4a9d39c3e, type: 3}
  - m_RefCount: 1
    m_Data: {fileID: 21300110, guid: c126f07508bdbcc44aac8dd4a9d39c3e, type: 3}
  - m_RefCount: 1
    m_Data: {fileID: 21300108, guid: c126f07508bdbcc44aac8dd4a9d39c3e, type: 3}
  - m_RefCount: 1
    m_Data: {fileID: 21300106, guid: c126f07508bdbcc44aac8dd4a9d39c3e, type: 3}
  - m_RefCount: 1
    m_Data: {fileID: 21300104, guid: c126f07508bdbcc44aac8dd4a9d39c3e, type: 3}
  - m_RefCount: 1
    m_Data: {fileID: 21300046, guid: c126f07508bdbcc44aac8dd4a9d39c3e, type: 3}
  - m_RefCount: 1
    m_Data: {fileID: 21300012, guid: c126f07508bdbcc44aac8dd4a9d39c3e, type: 3}
  - m_RefCount: 1
    m_Data: {fileID: 21300044, guid: c126f07508bdbcc44aac8dd4a9d39c3e, type: 3}
  - m_RefCount: 1
    m_Data: {fileID: 21300042, guid: c126f07508bdbcc44aac8dd4a9d39c3e, type: 3}
  - m_RefCount: 1
    m_Data: {fileID: 21300072, guid: c126f07508bdbcc44aac8dd4a9d39c3e, type: 3}
  - m_RefCount: 1
    m_Data: {fileID: 21300128, guid: c126f07508bdbcc44aac8dd4a9d39c3e, type: 3}
  - m_RefCount: 1
    m_Data: {fileID: 21300126, guid: c126f07508bdbcc44aac8dd4a9d39c3e, type: 3}
  - m_RefCount: 1
    m_Data: {fileID: 21300140, guid: c126f07508bdbcc44aac8dd4a9d39c3e, type: 3}
  - m_RefCount: 1
    m_Data: {fileID: 21300138, guid: c126f07508bdbcc44aac8dd4a9d39c3e, type: 3}
  - m_RefCount: 1
    m_Data: {fileID: 21300136, guid: c126f07508bdbcc44aac8dd4a9d39c3e, type: 3}
  - m_RefCount: 1
    m_Data: {fileID: 21300134, guid: c126f07508bdbcc44aac8dd4a9d39c3e, type: 3}
  - m_RefCount: 1
    m_Data: {fileID: 21300132, guid: c126f07508bdbcc44aac8dd4a9d39c3e, type: 3}
  - m_RefCount: 1
    m_Data: {fileID: 21300130, guid: c126f07508bdbcc44aac8dd4a9d39c3e, type: 3}
  - m_RefCount: 1
    m_Data: {fileID: 21300040, guid: c126f07508bdbcc44aac8dd4a9d39c3e, type: 3}
  - m_RefCount: 1
    m_Data: {fileID: 21300038, guid: c126f07508bdbcc44aac8dd4a9d39c3e, type: 3}
  - m_RefCount: 1
    m_Data: {fileID: 21300076, guid: c126f07508bdbcc44aac8dd4a9d39c3e, type: 3}
  - m_RefCount: 1
    m_Data: {fileID: 21300070, guid: c126f07508bdbcc44aac8dd4a9d39c3e, type: 3}
  - m_RefCount: 1
    m_Data: {fileID: 21300068, guid: c126f07508bdbcc44aac8dd4a9d39c3e, type: 3}
  - m_RefCount: 1
    m_Data: {fileID: 21300154, guid: c126f07508bdbcc44aac8dd4a9d39c3e, type: 3}
  - m_RefCount: 1
    m_Data: {fileID: 21300152, guid: c126f07508bdbcc44aac8dd4a9d39c3e, type: 3}
  - m_RefCount: 1
    m_Data: {fileID: 21300166, guid: c126f07508bdbcc44aac8dd4a9d39c3e, type: 3}
  - m_RefCount: 1
    m_Data: {fileID: 21300164, guid: c126f07508bdbcc44aac8dd4a9d39c3e, type: 3}
  - m_RefCount: 1
    m_Data: {fileID: 21300162, guid: c126f07508bdbcc44aac8dd4a9d39c3e, type: 3}
  - m_RefCount: 1
    m_Data: {fileID: 21300160, guid: c126f07508bdbcc44aac8dd4a9d39c3e, type: 3}
  - m_RefCount: 1
    m_Data: {fileID: 21300158, guid: c126f07508bdbcc44aac8dd4a9d39c3e, type: 3}
  - m_RefCount: 1
    m_Data: {fileID: 21300156, guid: c126f07508bdbcc44aac8dd4a9d39c3e, type: 3}
  - m_RefCount: 1
    m_Data: {fileID: 21300098, guid: c126f07508bdbcc44aac8dd4a9d39c3e, type: 3}
  - m_RefCount: 1
    m_Data: {fileID: 21300096, guid: c126f07508bdbcc44aac8dd4a9d39c3e, type: 3}
  - m_RefCount: 1
    m_Data: {fileID: 21300066, guid: c126f07508bdbcc44aac8dd4a9d39c3e, type: 3}
  - m_RefCount: 1
    m_Data: {fileID: 21300064, guid: c126f07508bdbcc44aac8dd4a9d39c3e, type: 3}
  - m_RefCount: 1
    m_Data: {fileID: 21300102, guid: c126f07508bdbcc44aac8dd4a9d39c3e, type: 3}
  - m_RefCount: 1
    m_Data: {fileID: 21300180, guid: c126f07508bdbcc44aac8dd4a9d39c3e, type: 3}
  - m_RefCount: 1
    m_Data: {fileID: 21300178, guid: c126f07508bdbcc44aac8dd4a9d39c3e, type: 3}
  - m_RefCount: 1
    m_Data: {fileID: 21300190, guid: c126f07508bdbcc44aac8dd4a9d39c3e, type: 3}
  - m_RefCount: 1
    m_Data: {fileID: 21300188, guid: c126f07508bdbcc44aac8dd4a9d39c3e, type: 3}
  - m_RefCount: 1
    m_Data: {fileID: 21300186, guid: c126f07508bdbcc44aac8dd4a9d39c3e, type: 3}
  - m_RefCount: 1
    m_Data: {fileID: 21300184, guid: c126f07508bdbcc44aac8dd4a9d39c3e, type: 3}
  - m_RefCount: 1
    m_Data: {fileID: 21300182, guid: c126f07508bdbcc44aac8dd4a9d39c3e, type: 3}
  - m_RefCount: 1
    m_Data: {fileID: 21300094, guid: c126f07508bdbcc44aac8dd4a9d39c3e, type: 3}
  - m_RefCount: 1
    m_Data: {fileID: 21300048, guid: c126f07508bdbcc44aac8dd4a9d39c3e, type: 3}
  - m_RefCount: 1
    m_Data: {fileID: 21300074, guid: c126f07508bdbcc44aac8dd4a9d39c3e, type: 3}
  - m_RefCount: 1
    m_Data: {fileID: 21300100, guid: c126f07508bdbcc44aac8dd4a9d39c3e, type: 3}
  - m_RefCount: 1
    m_Data: {fileID: 21300092, guid: c126f07508bdbcc44aac8dd4a9d39c3e, type: 3}
  - m_RefCount: 1
    m_Data: {fileID: 21300090, guid: c126f07508bdbcc44aac8dd4a9d39c3e, type: 3}
  - m_RefCount: 1
    m_Data: {fileID: 21300206, guid: c126f07508bdbcc44aac8dd4a9d39c3e, type: 3}
  - m_RefCount: 1
    m_Data: {fileID: 21300204, guid: c126f07508bdbcc44aac8dd4a9d39c3e, type: 3}
  - m_RefCount: 1
    m_Data: {fileID: 21300216, guid: c126f07508bdbcc44aac8dd4a9d39c3e, type: 3}
  - m_RefCount: 1
    m_Data: {fileID: 21300214, guid: c126f07508bdbcc44aac8dd4a9d39c3e, type: 3}
  - m_RefCount: 1
    m_Data: {fileID: 21300212, guid: c126f07508bdbcc44aac8dd4a9d39c3e, type: 3}
  - m_RefCount: 1
    m_Data: {fileID: 21300210, guid: c126f07508bdbcc44aac8dd4a9d39c3e, type: 3}
  - m_RefCount: 1
    m_Data: {fileID: 21300208, guid: c126f07508bdbcc44aac8dd4a9d39c3e, type: 3}
  - m_RefCount: 1
    m_Data: {fileID: 21300218, guid: c126f07508bdbcc44aac8dd4a9d39c3e, type: 3}
  - m_RefCount: 1
    m_Data: {fileID: 21300220, guid: c126f07508bdbcc44aac8dd4a9d39c3e, type: 3}
  - m_RefCount: 1
    m_Data: {fileID: 21300232, guid: c126f07508bdbcc44aac8dd4a9d39c3e, type: 3}
  - m_RefCount: 1
    m_Data: {fileID: 21300230, guid: c126f07508bdbcc44aac8dd4a9d39c3e, type: 3}
  - m_RefCount: 1
    m_Data: {fileID: 21300226, guid: c126f07508bdbcc44aac8dd4a9d39c3e, type: 3}
  - m_RefCount: 1
    m_Data: {fileID: 21300228, guid: c126f07508bdbcc44aac8dd4a9d39c3e, type: 3}
  - m_RefCount: 1
    m_Data: {fileID: 21300224, guid: c126f07508bdbcc44aac8dd4a9d39c3e, type: 3}
  - m_RefCount: 1
    m_Data: {fileID: 21300222, guid: c126f07508bdbcc44aac8dd4a9d39c3e, type: 3}
  - m_RefCount: 1
    m_Data: {fileID: 21300242, guid: c126f07508bdbcc44aac8dd4a9d39c3e, type: 3}
  - m_RefCount: 1
    m_Data: {fileID: 21300240, guid: c126f07508bdbcc44aac8dd4a9d39c3e, type: 3}
  - m_RefCount: 1
    m_Data: {fileID: 21300238, guid: c126f07508bdbcc44aac8dd4a9d39c3e, type: 3}
  - m_RefCount: 1
    m_Data: {fileID: 21300236, guid: c126f07508bdbcc44aac8dd4a9d39c3e, type: 3}
  - m_RefCount: 1
    m_Data: {fileID: 21300234, guid: c126f07508bdbcc44aac8dd4a9d39c3e, type: 3}
  - m_RefCount: 1
    m_Data: {fileID: 21300244, guid: c126f07508bdbcc44aac8dd4a9d39c3e, type: 3}
  - m_RefCount: 1
    m_Data: {fileID: 21300246, guid: c126f07508bdbcc44aac8dd4a9d39c3e, type: 3}
  - m_RefCount: 1
    m_Data: {fileID: 21300248, guid: c126f07508bdbcc44aac8dd4a9d39c3e, type: 3}
  - m_RefCount: 1
    m_Data: {fileID: 21300250, guid: c126f07508bdbcc44aac8dd4a9d39c3e, type: 3}
  - m_RefCount: 1
    m_Data: {fileID: 21300252, guid: c126f07508bdbcc44aac8dd4a9d39c3e, type: 3}
  - m_RefCount: 1
    m_Data: {fileID: 21300254, guid: c126f07508bdbcc44aac8dd4a9d39c3e, type: 3}
  - m_RefCount: 1
    m_Data: {fileID: 21300256, guid: c126f07508bdbcc44aac8dd4a9d39c3e, type: 3}
  - m_RefCount: 1
    m_Data: {fileID: 21300258, guid: c126f07508bdbcc44aac8dd4a9d39c3e, type: 3}
  - m_RefCount: 1
    m_Data: {fileID: 21300268, guid: c126f07508bdbcc44aac8dd4a9d39c3e, type: 3}
  - m_RefCount: 1
    m_Data: {fileID: 21300266, guid: c126f07508bdbcc44aac8dd4a9d39c3e, type: 3}
  - m_RefCount: 1
    m_Data: {fileID: 21300264, guid: c126f07508bdbcc44aac8dd4a9d39c3e, type: 3}
  - m_RefCount: 1
    m_Data: {fileID: 21300262, guid: c126f07508bdbcc44aac8dd4a9d39c3e, type: 3}
  - m_RefCount: 1
    m_Data: {fileID: 21300260, guid: c126f07508bdbcc44aac8dd4a9d39c3e, type: 3}
  - m_RefCount: 1
    m_Data: {fileID: 21300270, guid: c126f07508bdbcc44aac8dd4a9d39c3e, type: 3}
  - m_RefCount: 1
    m_Data: {fileID: 21300272, guid: c126f07508bdbcc44aac8dd4a9d39c3e, type: 3}
  - m_RefCount: 1
    m_Data: {fileID: 21300274, guid: c126f07508bdbcc44aac8dd4a9d39c3e, type: 3}
  - m_RefCount: 1
    m_Data: {fileID: 21300276, guid: c126f07508bdbcc44aac8dd4a9d39c3e, type: 3}
  - m_RefCount: 1
    m_Data: {fileID: 21300278, guid: c126f07508bdbcc44aac8dd4a9d39c3e, type: 3}
  - m_RefCount: 1
    m_Data: {fileID: 21300280, guid: c126f07508bdbcc44aac8dd4a9d39c3e, type: 3}
  - m_RefCount: 1
    m_Data: {fileID: 21300282, guid: c126f07508bdbcc44aac8dd4a9d39c3e, type: 3}
  - m_RefCount: 1
    m_Data: {fileID: 21300284, guid: c126f07508bdbcc44aac8dd4a9d39c3e, type: 3}
  - m_RefCount: 1
    m_Data: {fileID: 21300286, guid: c126f07508bdbcc44aac8dd4a9d39c3e, type: 3}
  - m_RefCount: 1
    m_Data: {fileID: 21300288, guid: c126f07508bdbcc44aac8dd4a9d39c3e, type: 3}
  - m_RefCount: 1
    m_Data: {fileID: 21300290, guid: c126f07508bdbcc44aac8dd4a9d39c3e, type: 3}
  - m_RefCount: 1
    m_Data: {fileID: 21300292, guid: c126f07508bdbcc44aac8dd4a9d39c3e, type: 3}
  - m_RefCount: 1
    m_Data: {fileID: 21300294, guid: c126f07508bdbcc44aac8dd4a9d39c3e, type: 3}
  - m_RefCount: 1
    m_Data: {fileID: 21300296, guid: c126f07508bdbcc44aac8dd4a9d39c3e, type: 3}
  m_TileMatrixArray:
  - m_RefCount: 128
    m_Data:
      e00: 1
      e01: 0
      e02: 0
      e03: 0
      e10: 0
      e11: 1
      e12: 0
      e13: 0
      e20: 0
      e21: 0
      e22: 1
      e23: 0
      e30: 0
      e31: 0
      e32: 0
      e33: 1
  m_TileColorArray:
  - m_RefCount: 128
    m_Data: {r: 1, g: 1, b: 1, a: 1}
  m_AnimationFrameRate: 1
  m_Color: {r: 1, g: 1, b: 1, a: 1}
  m_Origin: {x: -8, y: -17, z: 0}
  m_Size: {x: 27, y: 31, z: 1}
  m_TileAnchor: {x: 0, y: 0, z: 0}
  m_TileOrientation: 0
  m_TileOrientationMatrix:
    e00: 1
    e01: 0
    e02: 0
    e03: 0
    e10: 0
    e11: 1
    e12: 0
    e13: 0
    e20: 0
    e21: 0
    e22: 1
    e23: 0
    e30: 0
    e31: 0
    e32: 0
    e33: 1
